\relax 
\providecommand\hyper@newdestlabel[2]{}
\catcode `"\active 
\providecommand\HyperFirstAtBeginDocument{\AtBeginDocument}
\HyperFirstAtBeginDocument{\ifx\hyper@anchor\@undefined
\global\let\oldcontentsline\contentsline
\gdef\contentsline#1#2#3#4{\oldcontentsline{#1}{#2}{#3}}
\global\let\oldnewlabel\newlabel
\gdef\newlabel#1#2{\newlabelxx{#1}#2}
\gdef\newlabelxx#1#2#3#4#5#6{\oldnewlabel{#1}{{#2}{#3}}}
\AtEndDocument{\ifx\hyper@anchor\@undefined
\let\contentsline\oldcontentsline
\let\newlabel\oldnewlabel
\fi}
\fi}
\global\let\hyper@last\relax 
\gdef\HyperFirstAtBeginDocument#1{#1}
\providecommand\HyField@AuxAddToFields[1]{}
\providecommand\HyField@AuxAddToCoFields[2]{}
\select@language{british}
\@writefile{toc}{\select@language{british}}
\@writefile{lof}{\select@language{british}}
\@writefile{lot}{\select@language{british}}
\select@language{british}
\@writefile{toc}{\select@language{british}}
\@writefile{lof}{\select@language{british}}
\@writefile{lot}{\select@language{british}}
\citation{Mio-Simpson}
\citation{Banach_theorem}
\citation{Brower_theorem}
\citation{rudiments}
\citation{principles_of_model_checking}
\citation{Mio-Simpson}
\citation{rudiments}
\citation{Mio-Simpson}
\citation{Mio-Simpson}
\citation{Mio-Simpson}
\citation{Mio-Simpson}
\citation{rudiments}
\@writefile{toc}{\contentsline {section}{\numberline {1}Introduction}{1}{section.1}}
\@writefile{toc}{\contentsline {section}{\numberline {2}Complete lattices, fixed points and the Knaster-Tarski theorem}{2}{section.2}}
\newlabel{sec:lattices}{{2}{2}{Complete lattices, fixed points and the Knaster-Tarski theorem}{section.2}{}}
\@writefile{toc}{\contentsline {subsection}{\numberline {2.1}Complete lattices}{2}{subsection.2.1}}
\citation{rudiments}
\newlabel{subset_prop}{{2.4}{3}{}{definition.2.4}{}}
\@writefile{toc}{\contentsline {subsection}{\numberline {2.2}Monotonic functions and fixed points}{4}{subsection.2.2}}
\newlabel{def:monotonic}{{2.5}{4}{}{definition.2.5}{}}
\newlabel{ex:powerset_monotonic}{{2.6}{4}{}{definition.2.6}{}}
\newlabel{prop_mon}{{2.7}{4}{}{definition.2.7}{}}
\citation{Banach_theorem}
\citation{rudiments}
\@writefile{lof}{\contentsline {figure}{\numberline {1}{\ignorespaces Fixed points of a function $f(x) = x^3 - 3x +1$. }}{5}{figure.1}}
\newlabel{fig:fixed_points_example}{{1}{5}{Fixed points of a function $f(x) = x^3 - 3x +1$}{figure.1}{}}
\@writefile{toc}{\contentsline {subsection}{\numberline {2.3}Knaster-Tarski theorem}{5}{subsection.2.3}}
\newlabel{Knaster-Tarski}{{2.10}{5}{Knaster-Tarski}{definition.2.10}{}}
\citation{lambda_calc}
\citation{rudiments}
\@writefile{toc}{\contentsline {subsection}{\numberline {2.4}Properties of fixed points and nested fixed points}{6}{subsection.2.4}}
\newlabel{sec:properties_of_fixed_points}{{2.4}{6}{Properties of fixed points and nested fixed points}{subsection.2.4}{}}
\citation{Mio-Simpson}
\newlabel{prop:monotonic_fixed_points}{{2.12}{7}{}{definition.2.12}{}}
\newlabel{Golden_lemma}{{2.13}{7}{Golden lemma of $\mu $-calculus}{definition.2.13}{}}
\@writefile{toc}{\contentsline {section}{\numberline {3}Piecewise linear functions}{7}{section.3}}
\@writefile{lof}{\contentsline {figure}{\numberline {2}{\ignorespaces A discontinuous monotone piecewise linear function on $[0,1]$. An open interval is indicated by an arrow for us to see, that the function takes a unique value at every point in the domain.}}{8}{figure.2}}
\newlabel{fig:piecewise_linear_function_example}{{2}{8}{A discontinuous monotone piecewise linear function on $[0,1]$. An open interval is indicated by an arrow for us to see, that the function takes a unique value at every point in the domain}{figure.2}{}}
\@writefile{toc}{\contentsline {subsection}{\numberline {3.1}Conditioned linear expressions}{8}{subsection.3.1}}
\newlabel{linear_inequalities}{{3.1}{8}{}{equation.3.1}{}}
\citation{Mio-Simpson}
\citation{convex_set}
\citation{Mio-Simpson}
\citation{polytopes}
\newlabel{convex_domain}{{3.3}{9}{}{definition.3.3}{}}
\newlabel{convex_intersection}{{3.4}{9}{}{definition.3.4}{}}
\citation{Mio-Simpson}
\citation{quantifier_elim}
\newlabel{exam:piecewise_linear_function_example}{{3.6}{10}{}{definition.3.6}{}}
\@writefile{toc}{\contentsline {subsection}{\numberline {3.2}First-order theory of linear arithmetic}{10}{subsection.3.2}}
\newlabel{sec:first_order_theory}{{3.2}{10}{First-order theory of linear arithmetic}{subsection.3.2}{}}
\newlabel{prop:graph_piecewise_linear_function}{{3.8}{10}{}{definition.3.8}{}}
\newlabel{eq:graph_rewriting}{{3.2}{11}{First-order theory of linear arithmetic}{equation.3.2}{}}
\newlabel{prop:mu_still_piecewise_linear}{{3.9}{11}{}{definition.3.9}{}}
\@writefile{toc}{\contentsline {subsection}{\numberline {3.3}Local algorithm}{12}{subsection.3.3}}
\newlabel{def:local_alg}{{3.10}{12}{}{definition.3.10}{}}
\@writefile{toc}{\contentsline {section}{\numberline {4}Iterative algorithm for finding fixed points}{12}{section.4}}
\newlabel{sec:iterative_algorithm}{{4}{12}{Iterative algorithm for finding fixed points}{section.4}{}}
\citation{Rackoff}
\citation{real_ram}
\citation{Mio-Simpson}
\citation{Mio-Simpson}
\@writefile{toc}{\contentsline {subsection}{\numberline {4.1}Motivating the algorithm on example}{13}{subsection.4.1}}
\citation{Banach_theorem}
\citation{Mio-Simpson}
\@writefile{lof}{\contentsline {figure}{\numberline {3}{\ignorespaces Graph of the function $f$ and the diagonal.}}{14}{figure.3}}
\newlabel{fig:piecewise_linear_function_example_with_diagonal}{{3}{14}{Graph of the function $f$ and the diagonal}{figure.3}{}}
\@writefile{toc}{\contentsline {subsection}{\numberline {4.2}The iterative algorithm}{14}{subsection.4.2}}
\newlabel{subsec:modified_algorithm}{{4.2}{14}{The iterative algorithm}{subsection.4.2}{}}
\@writefile{toc}{\contentsline {subsubsection}{\numberline {4.2.1}Modified algorithm}{15}{subsubsection.4.2.1}}
\newlabel{sec:modified_algorithm}{{4.2.1}{15}{Modified algorithm}{subsubsection.4.2.1}{}}
\newlabel{eq:alg_rearrange_C}{{4.1}{15}{Modified algorithm}{equation.4.1}{}}
\newlabel{eq:alg_f}{{4.2}{15}{Modified algorithm}{equation.4.2}{}}
\newlabel{eq:define_E}{{4.3}{15}{Modified algorithm}{equation.4.3}{}}
\newlabel{eq:modified_D_strict}{{4.4}{16}{Modified algorithm}{equation.4.4}{}}
\newlabel{eq:modified_D_non_strict}{{4.5}{16}{Modified algorithm}{equation.4.5}{}}
\citation{Mio-Simpson}
\citation{Mio-Simpson}
\@writefile{toc}{\contentsline {subsubsection}{\numberline {4.2.2}Correctness and termination of modified algorithm}{18}{subsubsection.4.2.2}}
\newlabel{sec:correctness_proof}{{4.2.2}{18}{Correctness and termination of modified algorithm}{subsubsection.4.2.2}{}}
\newlabel{eq:correctness_basis}{{4.6}{18}{}{equation.4.6}{}}
\newlabel{eq:inerval_for_e_s}{{4.7}{20}{Correctness and termination of modified algorithm}{equation.4.7}{}}
\newlabel{eq:basis_local_alg}{{4.8}{20}{Correctness and termination of modified algorithm}{equation.4.8}{}}
\citation{Mio-Simpson}
\@writefile{toc}{\contentsline {subsubsection}{\numberline {4.2.3}Comparison to the original version of the algorithm from \cite  {Mio-Simpson}.}{21}{subsubsection.4.2.3}}
\newlabel{sec:comparison_of_versions}{{4.2.3}{21}{Comparison to the original version of the algorithm from \cite {Mio-Simpson}}{subsubsection.4.2.3}{}}
\citation{Mio-Simpson}
\citation{polytopes}
\@writefile{toc}{\contentsline {subsection}{\numberline {4.3}Quantifier elimination optimisation}{22}{subsection.4.3}}
\newlabel{subsec:quantifier_elimination_optimisation}{{4.3}{22}{Quantifier elimination optimisation}{subsection.4.3}{}}
\citation{polytopes}
\@writefile{lof}{\contentsline {figure}{\numberline {4}{\ignorespaces A unit square without its vertices.}}{26}{figure.4}}
\newlabel{fig:square:empty}{{4}{26}{A unit square without its vertices}{figure.4}{}}
\citation{quantifier_elim}
\newlabel{prop:qe_smallest_set}{{4.6}{27}{}{definition.4.6}{}}
\newlabel{prop:qe_smallest_set}{{4.3}{27}{Quantifier elimination optimisation}{definition.4.6}{}}
\newlabel{eq:qe_rearrange}{{4.9}{27}{Quantifier elimination optimisation}{equation.4.9}{}}
\newlabel{eq:qe_rearrange}{{4.10}{27}{Quantifier elimination optimisation}{equation.4.10}{}}
\citation{Mio-Simpson}
\citation{fuzzy}
\citation{Brower_theorem}
\citation{Mio-Simpson}
\@writefile{toc}{\contentsline {section}{\numberline {5}$\mu $-terms}{28}{section.5}}
\newlabel{sec:mu_terms}{{5}{28}{$\mu $-terms}{section.5}{}}
\citation{Mio-Simpson}
\citation{Mio-Simpson}
\citation{McNaughton}
\citation{Mio-Simpson}
\newlabel{qu:every_plf_is_mu_term}{{5.4}{31}{}{definition.5.4}{}}
\@writefile{toc}{\contentsline {subsection}{\numberline {5.1}Algorithm for evaluating $\mu $-terms}{31}{subsection.5.1}}
\newlabel{sec:algorithm_evaluate_pseudocode}{{5.1}{31}{Algorithm for evaluating $\mu $-terms}{subsection.5.1}{}}
\citation{Mio-Simpson}
\@writefile{toc}{\contentsline {section}{\numberline {6}Implementation of the algorithm}{32}{section.6}}
\newlabel{sec:implementation}{{6}{32}{Implementation of the algorithm}{section.6}{}}
\@writefile{toc}{\contentsline {subsection}{\numberline {6.1}The class of $\mu $-terms}{33}{subsection.6.1}}
\@writefile{toc}{\contentsline {subsection}{\numberline {6.2}Generating examples}{33}{subsection.6.2}}
\newlabel{sec: generating_examples}{{6.2}{33}{Generating examples}{subsection.6.2}{}}
\citation{Mio-Simpson}
\@writefile{toc}{\contentsline {subsection}{\numberline {6.3}Algorithm evaluate}{35}{subsection.6.3}}
\@writefile{toc}{\contentsline {subsection}{\numberline {6.4}Testing the performance}{36}{subsection.6.4}}
\newlabel{sec:testing_the_performance}{{6.4}{36}{Testing the performance}{subsection.6.4}{}}
\citation{Mio-Simpson}
\citation{Condon}
\@writefile{toc}{\contentsline {section}{\numberline {7}Results}{37}{section.7}}
\newlabel{sec:results}{{7}{37}{Results}{section.7}{}}
\@writefile{lof}{\contentsline {figure}{\numberline {5}{\ignorespaces Graph of averages of number of loop iterations. }}{38}{figure.5}}
\newlabel{fig:averages_iterations}{{5}{38}{Graph of averages of number of loop iterations}{figure.5}{}}
\@writefile{lof}{\contentsline {figure}{\numberline {6}{\ignorespaces Graph of averages, medians and maximums of number of loop iterations. }}{38}{figure.6}}
\newlabel{fig:max_averages_medians_iterations}{{6}{38}{Graph of averages, medians and maximums of number of loop iterations}{figure.6}{}}
\@writefile{lof}{\contentsline {figure}{\numberline {7}{\ignorespaces Graph of averages of constraint set sizes. }}{39}{figure.7}}
\newlabel{fig:averages_constraint_sets}{{7}{39}{Graph of averages of constraint set sizes}{figure.7}{}}
\@writefile{lof}{\contentsline {figure}{\numberline {8}{\ignorespaces Graph of averages of constraint set sizes for versions with quantifier elimination. }}{40}{figure.8}}
\newlabel{fig:averages_constraint_sets2}{{8}{40}{Graph of averages of constraint set sizes for versions with quantifier elimination}{figure.8}{}}
\@writefile{lof}{\contentsline {figure}{\numberline {9}{\ignorespaces Graph of maximums, averages and medians of constraint set sizes. }}{40}{figure.9}}
\newlabel{fig:max_averages_medians_constraint_sets}{{9}{40}{Graph of maximums, averages and medians of constraint set sizes}{figure.9}{}}
\@writefile{lof}{\contentsline {figure}{\numberline {10}{\ignorespaces Graph of averages of time spent on evaluations of terms. }}{41}{figure.10}}
\newlabel{fig:averages_times}{{10}{41}{Graph of averages of time spent on evaluations of terms}{figure.10}{}}
\@writefile{lof}{\contentsline {figure}{\numberline {11}{\ignorespaces Graph of maximums and averages of time spent on evaluations of terms. }}{42}{figure.11}}
\newlabel{fig:max_averages_times}{{11}{42}{Graph of maximums and averages of time spent on evaluations of terms}{figure.11}{}}
\@writefile{lof}{\contentsline {figure}{\numberline {12}{\ignorespaces Graph of medians of time spent on evaluations of terms. }}{42}{figure.12}}
\newlabel{fig:medians_times}{{12}{42}{Graph of medians of time spent on evaluations of terms}{figure.12}{}}
\citation{Mio-Simpson}
\citation{Condon}
\citation{Condon}
\@writefile{toc}{\contentsline {section}{\numberline {8}Conclusion and further work}{43}{section.8}}
\citation{rudiments}
\citation{Banach_theorem}
\citation{Brower_theorem}
\citation{rudiments}
\citation{Mio-Simpson}
\citation{rudiments}
\select@language{slovene}
\@writefile{toc}{\select@language{slovene}}
\@writefile{lof}{\select@language{slovene}}
\@writefile{lot}{\select@language{slovene}}
\@writefile{toc}{\contentsline {section}{\numberline {9}Raz\IeC {\v s}irjeni povzetek v sloven\IeC {\v s}\IeC {\v c}ini}{45}{section.9}}
\@writefile{toc}{\contentsline {subsection}{\numberline {9.1}Uvod}{45}{subsection.9.1}}
\@writefile{toc}{\contentsline {subsection}{\numberline {9.2}Mre\IeC {\v z}e, negibne to\IeC {\v c}ke in izrek Knaster-Tarski}{45}{subsection.9.2}}
\newlabel{definicija:monotonost}{{9.3}{46}{}{definicija.9.3}{}}
\@writefile{lof}{\contentsline {figure}{\numberline {13}{\ignorespaces Fiksne to\IeC {\v c}ke funkcije $f(x) = x^3 - 3x +1$. }}{46}{figure.13}}
\newlabel{fig:fixed_points_example1}{{13}{46}{Fiksne točke funkcije $f(x) = x^3 - 3x +1$}{figure.13}{}}
\newlabel{izr:Knaster-Tarski}{{9.6}{47}{Knaster-Tarski}{definicija.9.6}{}}
\newlabel{trd:monotonic_fixed_points}{{9.7}{47}{}{definicija.9.7}{}}
\newlabel{Zlata_lema}{{9.8}{47}{Zlata lema $\mu $-računa}{definicija.9.8}{}}
\@writefile{toc}{\contentsline {subsection}{\numberline {9.3}Odsekovno linearne funkcije}{47}{subsection.9.3}}
\@writefile{lof}{\contentsline {figure}{\numberline {14}{\ignorespaces Nezvezna monotona odsekovno linearna funkcija na $[0,1]$. Odprt interval je nakazan s pu\IeC {\v s}\IeC {\v c}ico, saj ima funkcija enoli\IeC {\v c}no vrednost za vsak element domene.}}{48}{figure.14}}
\newlabel{fig:piecewise_linear_function_example1}{{14}{48}{Nezvezna monotona odsekovno linearna funkcija na $[0,1]$. Odprt interval je nakazan s puščico, saj ima funkcija enolično vrednost za vsak element domene}{figure.14}{}}
\newlabel{linear_inequalities}{{9.1}{48}{}{equation.9.1}{}}
\citation{Rackoff}
\newlabel{primer:odsekovno_linearna_funkcija}{{9.12}{49}{}{definicija.9.12}{}}
\newlabel{definicija:lokalni_algoritem}{{9.13}{49}{}{definicija.9.13}{}}
\@writefile{toc}{\contentsline {subsection}{\numberline {9.4}Iterativni algoritem na primeru}{49}{subsection.9.4}}
\citation{Mio-Simpson}
\@writefile{lof}{\contentsline {figure}{\numberline {15}{\ignorespaces Graf funkcije $f$ in diagonale.}}{50}{figure.15}}
\newlabel{fig:piecewise_linear_function_example_with_diagonal1}{{15}{50}{Graf funkcije $f$ in diagonale}{figure.15}{}}
\citation{Mio-Simpson}
\citation{polytopes}
\citation{polytopes}
\citation{quantifier_elim}
\@writefile{toc}{\contentsline {subsection}{\numberline {9.5}Primerjava razli\IeC {\v c}ic algoritma}{51}{subsection.9.5}}
\citation{Mio-Simpson}
\newlabel{prop:qe_smallest_set1}{{9.16}{52}{}{definicija.9.16}{}}
\@writefile{toc}{\contentsline {subsection}{\numberline {9.6}Implementacija in glavni rezultati}{52}{subsection.9.6}}
\@writefile{lof}{\contentsline {figure}{\numberline {16}{\ignorespaces Graf povpre\IeC {\v c}ja \IeC {\v s}tevila iteracij. }}{53}{figure.16}}
\newlabel{fig:average_iterations1}{{16}{53}{Graf povprečja števila iteracij}{figure.16}{}}
\citation{Mio-Simpson}
\@writefile{lof}{\contentsline {figure}{\numberline {17}{\ignorespaces Graf povpre\IeC {\v c}nega \IeC {\v c}asa, ki ga posamezen algoritem porabi za izra\IeC {\v c}un. }}{54}{figure.17}}
\newlabel{fig:averages_times1}{{17}{54}{Graf povprečnega časa, ki ga posamezen algoritem porabi za izračun}{figure.17}{}}
\select@language{british}
\@writefile{toc}{\select@language{british}}
\@writefile{lof}{\select@language{british}}
\@writefile{lot}{\select@language{british}}
\@writefile{lof}{\contentsline {figure}{\numberline {18}{\ignorespaces Graf povpre\IeC {\v c}ne najve\IeC {\v c}je velikosti mno\IeC {\v z}ice omejitev. }}{55}{figure.18}}
\newlabel{fig:averages_constraint_sets1}{{18}{55}{Graf povprečne največje velikosti množice omejitev}{figure.18}{}}
\bibstyle{fmf-sl}
\bibdata{literatura}
\bibcite{rudiments}{1}
\bibcite{principles_of_model_checking}{2}
\bibcite{lambda_calc}{3}
\bibcite{Condon}{4}
\bibcite{convex_set}{5}
\bibcite{Rackoff}{6}
\bibcite{polytopes}{7}
\bibcite{fuzzy}{8}
\bibcite{Banach_theorem}{9}
\bibcite{real_ram}{10}
\bibcite{McNaughton}{11}
\bibcite{Brower_theorem}{12}
\bibcite{Mio-Simpson}{13}
\bibcite{quantifier_elim}{14}
\@writefile{toc}{\contentsline {section}{References}{57}{section*.7}}
